{
  "Vinaya": "Vin",
  "Pārājika": "Par",
  "Pācittiya": "Pac",
  "Parivāra": "Pariv",
  "Mahāvagga": "Mv",
  "Cūḷavagga": "Cv",
  "Dīghanikāya": "D",
  "Majjhimanikāya": "M",
  "Saṃyuttanikāya": "S",
  "Aṅguttaranikāya": "A",
  "Therāpadāna": "Th-ap",
  "Therīapadāna": "Thi-ap",
  "Khuddakapāṭha": "Khp",
  "Dhammapada": "Dhp",
  "Udāna": "Ud",
  "Itivuttaka": "It",
  "Suttanipāta": "Sn",
  "Vimānavatthu": "Vv",
  "Petavatthu": "Pv",
  "Theragāthā": "Thera",
  "Therīgāthā": "Theri",
  "Apadāna": "Ap",
  "Buddhavaṃsa": "Bv",
  "Cariyāpiṭaka": "Cp",
  "Jātaka": "Ja",
  "Mahāniddesa": "Nidd-I",
  "Cūḷaniddesa": "Nidd-II",
  "Paṭisambhidāmagga": "Patis",
  "Milindapañha": "Mil",
  "Nettipakaraṇa": "Nett",
  "Peṭakopadesa": "Pet",
  "Dhammasaṅgaṇī": "Dhs",
  "Vibhaṅga": "Vibh",
  "Dhātukathā": "Dhatuk",
  "Puggalapaññatti": "Pp",
  "Kathāvatthu": "Kv",
  "Yamaka": "Yam",
  "Paṭṭhāna": "Patth",
  "Visuddhimagga": "Vism",
  "Visuddhimagga-mahāṭīkā": "Vism-mht",
  "Dvemātikā": "X1",
  "Nettippakaraṇa": "Netti",
  "Pañcapakaraṇa": "X3",
  "Sammohavinodanī": "X4",
  "Pārājikakaṇḍa": "X5"
}
